{
	"type": "FeatureCollection",
	"features": [{
		"type": "Feature",
		"geometry": {
			"type": "Point",
			"coordinates": [42.9456, -78]
		},
		"properties": {
			"flush": true,
			"shower": true,
			"vault": false,
			"description": "Sports",
			"title": "Mazama",
			"marker-size": "small"
		}
	}]
}